{
  "project_info": {
    "project_number": "774462200388",
    "project_id": "movies-app-5bd97",
    "storage_bucket": "movies-app-5bd97.appspot.com"
  },
  "client": [
    {
      "client_info": {
        "mobilesdk_app_id": "1:774462200388:android:24edfa6b6d91f298283a11",
        "android_client_info": {
          "package_name": "com.moviz.app"
        }
      },
      "oauth_client": [],
      "api_key": [
        {
          "current_key": "AIzaSyA7Gtgui1-ak6TYntfGnQFTjtoTo7E_Qc4"
        }
      ],
      "services": {
        "appinvite_service": {
          "other_platform_oauth_client": []
        }
      }
    }
  ],
  "configuration_version": "1"
}